# 3ds Max Wavefront OBJ Exporter v0.97b - (c)2007 guruware
# File Created: 25.08.2017 15:18:10

newmtl wire_220220220
	Ns 32
	d 1
	Tr 0
	Tf 1 1 1
	illum 2
	Ka 0.8627 0.8627 0.8627
	Kd 0.8627 0.8627 0.8627
	Ks 0.3500 0.3500 0.3500

newmtl wire_255255255
	Ns 32
	d 1
	Tr 0
	Tf 1 1 1
	illum 2
	Ka 1.0000 1.0000 1.0000
	Kd 1.0000 1.0000 1.0000
	Ks 0.3500 0.3500 0.3500

newmtl wire_082145165
	Ns 32
	d 1
	Tr 0
	Tf 1 1 1
	illum 2
	Ka 0.3216 0.5686 0.6471
	Kd 0.3216 0.5686 0.6471
	Ks 0.3500 0.3500 0.3500

newmtl wire_038076057
	Ns 32
	d 1
	Tr 0
	Tf 1 1 1
	illum 2
	Ka 0.1490 0.2980 0.2235
	Kd 0.1490 0.2980 0.2235
	Ks 0.3500 0.3500 0.3500

newmtl wire_255191127
	Ns 32
	d 1
	Tr 0
	Tf 1 1 1
	illum 2
	Ka 1.0000 0.7490 0.4980
	Kd 1.0000 0.7490 0.4980
	Ks 0.3500 0.3500 0.3500

newmtl wire_103165082
	Ns 32
	d 1
	Tr 0
	Tf 1 1 1
	illum 2
	Ka 0.4039 0.6471 0.3216
	Kd 0.4039 0.6471 0.3216
	Ks 0.3500 0.3500 0.3500

newmtl wire_255191000
	Ns 32
	d 1
	Tr 0
	Tf 1 1 1
	illum 2
	Ka 1.0000 0.7490 0.0000
	Kd 1.0000 0.7490 0.0000
	Ks 0.3500 0.3500 0.3500

newmtl wire_084084084
	Ns 32
	d 1
	Tr 0
	Tf 1 1 1
	illum 2
	Ka 0.3294 0.3294 0.3294
	Kd 0.3294 0.3294 0.3294
	Ks 0.3500 0.3500 0.3500

newmtl wire_000000038
	Ns 32
	d 1
	Tr 0
	Tf 1 1 1
	illum 2
	Ka 0.0000 0.0000 0.1490
	Kd 0.0000 0.0000 0.1490
	Ks 0.3500 0.3500 0.3500

newmtl wire_127223255
	Ns 32
	d 1
	Tr 0
	Tf 1 1 1
	illum 2
	Ka 0.4980 0.8745 1.0000
	Kd 0.4980 0.8745 1.0000
	Ks 0.3500 0.3500 0.3500

newmtl wire_255255000
	Ns 32
	d 1
	Tr 0
	Tf 1 1 1
	illum 2
	Ka 1.0000 1.0000 0.0000
	Kd 1.0000 1.0000 0.0000
	Ks 0.3500 0.3500 0.3500

newmtl wire_019038019
	Ns 32
	d 1
	Tr 0
	Tf 1 1 1
	illum 2
	Ka 0.0745 0.1490 0.0745
	Kd 0.0745 0.1490 0.0745
	Ks 0.3500 0.3500 0.3500

newmtl wire_255223127
	Ns 32
	d 1
	Tr 0
	Tf 1 1 1
	illum 2
	Ka 1.0000 0.8745 0.4980
	Kd 1.0000 0.8745 0.4980
	Ks 0.3500 0.3500 0.3500

newmtl wire_255127255
	Ns 32
	d 1
	Tr 0
	Tf 1 1 1
	illum 2
	Ka 1.0000 0.4980 1.0000
	Kd 1.0000 0.4980 1.0000
	Ks 0.3500 0.3500 0.3500

newmtl wire_127191255
	Ns 32
	d 1
	Tr 0
	Tf 1 1 1
	illum 2
	Ka 0.4980 0.7490 1.0000
	Kd 0.4980 0.7490 1.0000
	Ks 0.3500 0.3500 0.3500

newmtl wire_255000000
	Ns 32
	d 1
	Tr 0
	Tf 1 1 1
	illum 2
	Ka 1.0000 0.0000 0.0000
	Kd 1.0000 0.0000 0.0000
	Ks 0.3500 0.3500 0.3500

newmtl wire_019033038
	Ns 32
	d 1
	Tr 0
	Tf 1 1 1
	illum 2
	Ka 0.0745 0.1294 0.1490
	Kd 0.0745 0.1294 0.1490
	Ks 0.3500 0.3500 0.3500

newmtl wire_118118118
	Ns 32
	d 1
	Tr 0
	Tf 1 1 1
	illum 2
	Ka 0.4627 0.4627 0.4627
	Kd 0.4627 0.4627 0.4627
	Ks 0.3500 0.3500 0.3500
